{
  "1": {
    "username": "demo1",
    "currency": "RUB",
    "amount": 0.00
  },
  "2": {
    "username": "demo2",
    "currency": "RUB",
    "amount": 1000.00
  },
  "3": {
    "username": "demo3",
    "currency": "RUB",
    "amount": 5000.00
  },
  "4": {
    "username": "demo4",
    "currency": "RUB",
    "amount": 10000.00
  },
  "5": {
    "username": "demo5",
    "currency": "RUB",
    "amount": 100.00
  },
  "6": {
    "username": "demo6",
    "currency": "USD",
    "amount": 2000.00
  },
  "7": {
    "username": "demo7",
    "currency": "USD",
    "amount": 700.70
  },
  "8": {
    "username": "demo8",
    "currency": "EUR",
    "amount": 5500.00
  },
  "9": {
    "username": "demo9",
    "currency": "EUR",
    "amount": 300.00
  },
  "10": {
    "username": "demo10",
    "currency": "EUR",
    "amount": 1.00
  }
}